{
  "esoteric": [
    {
      "name": "principle of destiny",
      "pageNumber": 124
    },
    {
      "name": "principle of [energy/element]",
      "pageNumber": 124
    },
    {
      "name": "principle of exorcism",
      "pageNumber": 124
    },
    {
      "name": "principle of fauna",
      "pageNumber": 124
    },
    {
      "name": "principle of flora",
      "pageNumber": 125
    },
    {
      "name": "principle of the future",
      "pageNumber": 125
    },
    {
      "name": "principle of immortality",
      "pageNumber": 125
    },
    {
      "name": "principle of the inner demon",
      "pageNumber": 125
    },
    {
      "name": "principle of magic",
      "pageNumber": 125
    },
    {
      "name": "principle of the sea",
      "pageNumber": 126
    },
    {
      "name": "principle of space",
      "pageNumber": 126
    },
    {
      "name": "principle of the time traveler",
      "pageNumber": 126
    },
    {
      "name": "principle of the undead",
      "pageNumber": 126
    }
  ],
  "expertise": [
    {
      "name": "principle of clockwork",
      "pageNumber": 127
    },
    {
      "name": "principle of the gearhead",
      "pageNumber": 127
    },
    {
      "name": "principle of history",
      "pageNumber": 127
    },
    {
      "name": "principle of the indestructible",
      "pageNumber": 127
    },
    {
      "name": "principle of the lab",
      "pageNumber": 128
    },
    {
      "name": "principle of mastery",
      "pageNumber": 128
    },
    {
      "name": "principle of the mentor",
      "pageNumber": 128
    },
    {
      "name": "principle of the powerless",
      "pageNumber": 129
    },
    {
      "name": "principle of science",
      "pageNumber": 129
    },
    {
      "name": "principle of speed",
      "pageNumber": 129
    },
    {
      "name": "principle of stealth",
      "pageNumber": 129
    },
    {
      "name": "principle of strength",
      "pageNumber": 129
    },
    {
      "name": "principle of the tactician",
      "pageNumber": 130
    },
    {
      "name": "principle of whispers",
      "pageNumber": 130
    }
  ],
  "ideals": [
    {
      "name": "principle of chaos",
      "pageNumber": 131
    },
    {
      "name": "principle of compassion",
      "pageNumber": 131
    },
    {
      "name": "principle of the defender",
      "pageNumber": 131
    },
    {
      "name": "principle of dependence",
      "pageNumber": 131
    },
    {
      "name": "principle of equality",
      "pageNumber": 132
    },
    {
      "name": "principle of great power",
      "pageNumber": 132
    },
    {
      "name": "principle of the hero",
      "pageNumber": 132
    },
    {
      "name": "principle of honor",
      "pageNumber": 132
    },
    {
      "name": "principle of justice",
      "pageNumber": 133
    },
    {
      "name": "principle of liberty",
      "pageNumber": 133
    },
    {
      "name": "principle of order",
      "pageNumber": 133
    },
    {
      "name": "principle of self preservation",
      "pageNumber": 134
    },
    {
      "name": "principle of the zealot",
      "pageNumber": 134
    }
  ],
  "identity": [
    {
      "name": "principle of ambition",
      "pageNumber": 135
    },
    {
      "name": "principle of amnesia",
      "pageNumber": 135
    },
    {
      "name": "principle of detachment",
      "pageNumber": 135
    },
    {
      "name": "principle of discovery",
      "pageNumber": 135
    },
    {
      "name": "principle of the loner",
      "pageNumber": 136
    },
    {
      "name": "principle of the nomad",
      "pageNumber": 136
    },
    {
      "name": "principle of peace",
      "pageNumber": 136
    },
    {
      "name": "principle of rage",
      "pageNumber": 136
    },
    {
      "name": "principle of the split",
      "pageNumber": 137
    },
    {
      "name": "principle of savagery",
      "pageNumber": 137
    },
    {
      "name": "principle of levity",
      "pageNumber": 137
    },
    {
      "name": "principle of the spotless mind",
      "pageNumber": 137
    }
  ],
  "responsibility": [
    {
      "name": "principle of business",
      "pageNumber": 138
    },
    {
      "name": "principle of the debtor",
      "pageNumber": 138
    },
    {
      "name": "principle of the detective",
      "pageNumber": 138
    },
    {
      "name": "principle of the double agent",
      "pageNumber": 138
    },
    {
      "name": "principle of the everyman",
      "pageNumber": 139
    },
    {
      "name": "principle of family",
      "pageNumber": 139
    },
    {
      "name": "principle of the mask",
      "pageNumber": 139
    },
    {
      "name": "principle of the sidekick",
      "pageNumber": 139
    },
    {
      "name": "principle of the team",
      "pageNumber": 140
    },
    {
      "name": "principle of the underworld",
      "pageNumber": 140
    },
    {
      "name": "principle of the veteran",
      "pageNumber": 141
    },
    {
      "name": "principle of youth",
      "pageNumber": 141
    }
  ]
}